G04 #@! TF.GenerationSoftware,KiCad,Pcbnew,5.1.6*
G04 #@! TF.CreationDate,2020-08-08T11:32:48+03:00*
G04 #@! TF.ProjectId,filter-circuit,66696c74-6572-42d6-9369-72637569742e,rev?*
G04 #@! TF.SameCoordinates,Original*
G04 #@! TF.FileFunction,Soldermask,Bot*
G04 #@! TF.FilePolarity,Negative*
%FSLAX46Y46*%
G04 Gerber Fmt 4.6, Leading zero omitted, Abs format (unit mm)*
G04 Created by KiCad (PCBNEW 5.1.6) date 2020-08-08 11:32:48*
%MOMM*%
%LPD*%
G01*
G04 APERTURE LIST*
%ADD10O,1.700000X1.700000*%
%ADD11C,1.700000*%
%ADD12O,2.100000X2.005000*%
%ADD13R,2.100000X2.005000*%
%ADD14O,3.600000X3.600000*%
%ADD15C,3.300000*%
%ADD16O,1.450000X1.450000*%
%ADD17R,1.450000X1.450000*%
%ADD18O,1.300000X1.850000*%
%ADD19O,1.800000X1.800000*%
%ADD20R,1.800000X1.800000*%
%ADD21O,2.300000X2.300000*%
%ADD22R,2.300000X2.300000*%
%ADD23C,1.300000*%
%ADD24R,1.300000X1.300000*%
G04 APERTURE END LIST*
D10*
X98425000Y-84455000D03*
D11*
X90805000Y-84455000D03*
D12*
X90805000Y-74930000D03*
X90805000Y-77470000D03*
D13*
X90805000Y-80010000D03*
D14*
X107465000Y-77470000D03*
D15*
X136075000Y-90040000D03*
X136075000Y-66040000D03*
X92075000Y-66040000D03*
X92075000Y-90040000D03*
D16*
X113284000Y-72866000D03*
D17*
X113284000Y-70866000D03*
D16*
X113284000Y-67786000D03*
D17*
X113284000Y-65786000D03*
D18*
X104870000Y-66294000D03*
G36*
G01*
X102220000Y-66948168D02*
X102220000Y-65639832D01*
G75*
G02*
X102490832Y-65369000I270832J0D01*
G01*
X103249168Y-65369000D01*
G75*
G02*
X103520000Y-65639832I0J-270832D01*
G01*
X103520000Y-66948168D01*
G75*
G02*
X103249168Y-67219000I-270832J0D01*
G01*
X102490832Y-67219000D01*
G75*
G02*
X102220000Y-66948168I0J270832D01*
G01*
G37*
X128936000Y-89154000D03*
X126936000Y-89154000D03*
X124936000Y-89154000D03*
G36*
G01*
X122286000Y-89808168D02*
X122286000Y-88499832D01*
G75*
G02*
X122556832Y-88229000I270832J0D01*
G01*
X123315168Y-88229000D01*
G75*
G02*
X123586000Y-88499832I0J-270832D01*
G01*
X123586000Y-89808168D01*
G75*
G02*
X123315168Y-90079000I-270832J0D01*
G01*
X122556832Y-90079000D01*
G75*
G02*
X122286000Y-89808168I0J270832D01*
G01*
G37*
D19*
X129540000Y-66040000D03*
X129540000Y-68580000D03*
X129540000Y-71120000D03*
X129540000Y-73660000D03*
X129540000Y-76200000D03*
X129540000Y-78740000D03*
X129540000Y-81280000D03*
D20*
X129540000Y-83820000D03*
D19*
X116840000Y-83850000D03*
X116840000Y-81310000D03*
X116840000Y-78770000D03*
X116840000Y-76230000D03*
X116840000Y-73690000D03*
X116840000Y-71150000D03*
X116840000Y-68610000D03*
D20*
X116840000Y-66070000D03*
D18*
X102300000Y-90254000D03*
X104300000Y-90254000D03*
X106300000Y-90254000D03*
X108300000Y-90254000D03*
X110300000Y-90254000D03*
X112300000Y-90254000D03*
G36*
G01*
X114950000Y-89599832D02*
X114950000Y-90908168D01*
G75*
G02*
X114679168Y-91179000I-270832J0D01*
G01*
X113920832Y-91179000D01*
G75*
G02*
X113650000Y-90908168I0J270832D01*
G01*
X113650000Y-89599832D01*
G75*
G02*
X113920832Y-89329000I270832J0D01*
G01*
X114679168Y-89329000D01*
G75*
G02*
X114950000Y-89599832I0J-270832D01*
G01*
G37*
D21*
X97790000Y-69850000D03*
D22*
X97790000Y-64770000D03*
D23*
X134112000Y-72612000D03*
D24*
X134112000Y-70612000D03*
M02*
