G04 #@! TF.GenerationSoftware,KiCad,Pcbnew,5.1.6*
G04 #@! TF.CreationDate,2020-08-08T11:43:16+03:00*
G04 #@! TF.ProjectId,dust-sensor-circuit,64757374-2d73-4656-9e73-6f722d636972,rev?*
G04 #@! TF.SameCoordinates,Original*
G04 #@! TF.FileFunction,Soldermask,Bot*
G04 #@! TF.FilePolarity,Negative*
%FSLAX46Y46*%
G04 Gerber Fmt 4.6, Leading zero omitted, Abs format (unit mm)*
G04 Created by KiCad (PCBNEW 5.1.6) date 2020-08-08 11:43:16*
%MOMM*%
%LPD*%
G01*
G04 APERTURE LIST*
%ADD10O,1.300000X1.850000*%
%ADD11C,3.300000*%
%ADD12C,1.700000*%
%ADD13R,1.700000X1.700000*%
%ADD14O,1.500000X1.500000*%
%ADD15C,1.500000*%
G04 APERTURE END LIST*
D10*
X156304000Y-89408000D03*
X154304000Y-89408000D03*
X152304000Y-89408000D03*
X150304000Y-89408000D03*
X148304000Y-89408000D03*
G36*
G01*
X145654000Y-90062168D02*
X145654000Y-88753832D01*
G75*
G02*
X145924832Y-88483000I270832J0D01*
G01*
X146683168Y-88483000D01*
G75*
G02*
X146954000Y-88753832I0J-270832D01*
G01*
X146954000Y-90062168D01*
G75*
G02*
X146683168Y-90333000I-270832J0D01*
G01*
X145924832Y-90333000D01*
G75*
G02*
X145654000Y-90062168I0J270832D01*
G01*
G37*
D11*
X164592000Y-106680000D03*
X164592000Y-88900000D03*
X137668000Y-106680000D03*
X137668000Y-88900000D03*
D10*
X157288000Y-98552000D03*
X155288000Y-98552000D03*
X153288000Y-98552000D03*
X151288000Y-98552000D03*
X149288000Y-98552000D03*
X147288000Y-98552000D03*
G36*
G01*
X144638000Y-99206168D02*
X144638000Y-97897832D01*
G75*
G02*
X144908832Y-97627000I270832J0D01*
G01*
X145667168Y-97627000D01*
G75*
G02*
X145938000Y-97897832I0J-270832D01*
G01*
X145938000Y-99206168D01*
G75*
G02*
X145667168Y-99477000I-270832J0D01*
G01*
X144908832Y-99477000D01*
G75*
G02*
X144638000Y-99206168I0J270832D01*
G01*
G37*
D12*
X139660000Y-98044000D03*
D13*
X137160000Y-98044000D03*
D14*
X157988000Y-106680000D03*
D15*
X152908000Y-106680000D03*
M02*
