EESchema Schematic File Version 4
EELAYER 30 0
EELAYER END
$Descr A4 11693 8268
encoding utf-8
Sheet 1 1
Title ""
Date ""
Rev ""
Comp ""
Comment1 ""
Comment2 ""
Comment3 ""
Comment4 ""
$EndDescr
$Comp
L Connector:Conn_01x07_Male J2
U 1 1 5F293816
P 8050 3750
F 0 "J2" H 8022 3682 50  0000 R CNN
F 1 "Input" H 8022 3773 50  0000 R CNN
F 2 "Connector_JST:JST_PH_B7B-PH-K_1x07_P2.00mm_Vertical" H 8050 3750 50  0001 C CNN
F 3 "~" H 8050 3750 50  0001 C CNN
	1    8050 3750
	-1   0    0    1   
$EndComp
$Comp
L Connector:Conn_01x06_Male J1
U 1 1 5F295B9D
P 5850 3650
F 0 "J1" H 5958 4031 50  0000 C CNN
F 1 "to dust sensor" H 5958 3940 50  0000 C CNN
F 2 "Connector_JST:JST_PH_B6B-PH-K_1x06_P2.00mm_Vertical" H 5850 3650 50  0001 C CNN
F 3 "~" H 5850 3650 50  0001 C CNN
	1    5850 3650
	1    0    0    -1  
$EndComp
$Comp
L power:GND #PWR0101
U 1 1 5F2972EC
P 7600 3950
F 0 "#PWR0101" H 7600 3700 50  0001 C CNN
F 1 "GND" H 7605 3777 50  0000 C CNN
F 2 "" H 7600 3950 50  0001 C CNN
F 3 "" H 7600 3950 50  0001 C CNN
	1    7600 3950
	1    0    0    -1  
$EndComp
Wire Wire Line
	7850 3950 7600 3950
$Comp
L power:+5V #PWR0102
U 1 1 5F298096
P 7600 3850
F 0 "#PWR0102" H 7600 3700 50  0001 C CNN
F 1 "+5V" H 7450 3900 50  0000 C CNN
F 2 "" H 7600 3850 50  0001 C CNN
F 3 "" H 7600 3850 50  0001 C CNN
	1    7600 3850
	1    0    0    -1  
$EndComp
Wire Wire Line
	7850 3850 7600 3850
Wire Wire Line
	7850 3550 6950 3550
Wire Wire Line
	6950 3550 6950 3850
Wire Wire Line
	6950 3850 6050 3850
Text Label 6600 3850 0    50   ~ 0
vout
$Comp
L power:+5V #PWR0103
U 1 1 5F29962E
P 6050 3950
F 0 "#PWR0103" H 6050 3800 50  0001 C CNN
F 1 "+5V" H 6065 4123 50  0000 C CNN
F 2 "" H 6050 3950 50  0001 C CNN
F 3 "" H 6050 3950 50  0001 C CNN
	1    6050 3950
	-1   0    0    1   
$EndComp
$Comp
L power:GND #PWR0104
U 1 1 5F29A7F0
P 6250 3750
F 0 "#PWR0104" H 6250 3500 50  0001 C CNN
F 1 "GND" H 6250 3600 50  0000 C CNN
F 2 "" H 6250 3750 50  0001 C CNN
F 3 "" H 6250 3750 50  0001 C CNN
	1    6250 3750
	0    -1   1    0   
$EndComp
Wire Wire Line
	6050 3750 6250 3750
NoConn ~ 7850 4050
Wire Wire Line
	7850 3650 6050 3650
Text Label 6600 3650 0    50   ~ 0
led
$Comp
L Device:R R1
U 1 1 5F29DC31
P 7500 2850
F 0 "R1" V 7293 2850 50  0000 C CNN
F 1 "150ohm" V 7384 2850 50  0000 C CNN
F 2 "Resistor_THT:R_Axial_DIN0204_L3.6mm_D1.6mm_P5.08mm_Vertical" V 7430 2850 50  0001 C CNN
F 3 "~" H 7500 2850 50  0001 C CNN
	1    7500 2850
	0    1    1    0   
$EndComp
$Comp
L power:+5V #PWR0105
U 1 1 5F29E7F2
P 7850 2850
F 0 "#PWR0105" H 7850 2700 50  0001 C CNN
F 1 "+5V" H 7865 3023 50  0000 C CNN
F 2 "" H 7850 2850 50  0001 C CNN
F 3 "" H 7850 2850 50  0001 C CNN
	1    7850 2850
	1    0    0    -1  
$EndComp
Wire Wire Line
	7650 2850 7850 2850
Wire Wire Line
	7350 2850 7150 2850
Wire Wire Line
	6050 2850 6050 3450
Text Label 6250 2850 0    50   ~ 0
v-led
$Comp
L Device:CP1 C1
U 1 1 5F29FB20
P 7000 3300
F 0 "C1" V 6748 3300 50  0000 C CNN
F 1 "220uF" V 6839 3300 50  0000 C CNN
F 2 "Capacitor_THT:CP_Radial_D5.0mm_P2.50mm" H 7000 3300 50  0001 C CNN
F 3 "~" H 7000 3300 50  0001 C CNN
	1    7000 3300
	0    1    1    0   
$EndComp
Wire Wire Line
	6850 3300 6400 3300
Wire Wire Line
	6400 3300 6400 3550
Wire Wire Line
	6400 3550 6050 3550
$Comp
L power:GND #PWR0106
U 1 1 5F2A1DC0
P 6400 3300
F 0 "#PWR0106" H 6400 3050 50  0001 C CNN
F 1 "GND" H 6405 3127 50  0000 C CNN
F 2 "" H 6400 3300 50  0001 C CNN
F 3 "" H 6400 3300 50  0001 C CNN
	1    6400 3300
	-1   0    0    1   
$EndComp
Connection ~ 6400 3300
Wire Wire Line
	7150 3300 7150 2850
Connection ~ 7150 2850
Wire Wire Line
	7150 2850 6050 2850
NoConn ~ 7850 3750
NoConn ~ 7850 3450
$EndSCHEMATC
