EESchema Schematic File Version 4
EELAYER 30 0
EELAYER END
$Descr A4 11693 8268
encoding utf-8
Sheet 1 1
Title ""
Date ""
Rev ""
Comp ""
Comment1 ""
Comment2 ""
Comment3 ""
Comment4 ""
$EndDescr
$Comp
L Device:CP1 C1
U 1 1 5F175326
P 6950 4000
F 0 "C1" V 7100 3950 50  0000 L CNN
F 1 "100 uF" V 7200 3850 50  0000 L CNN
F 2 "Capacitor_THT:CP_Radial_D4.0mm_P2.00mm" H 6950 4000 50  0001 C CNN
F 3 "~" H 6950 4000 50  0001 C CNN
	1    6950 4000
	0    -1   -1   0   
$EndComp
Wire Wire Line
	6200 4200 7200 4200
Wire Wire Line
	6200 4300 7200 4300
Wire Wire Line
	6200 4400 7200 4400
Wire Wire Line
	6200 4500 7200 4500
$Comp
L Connector:Conn_01x04_Male J4
U 1 1 5F176E59
P 7400 4300
F 0 "J4" H 7508 4581 50  0000 C CNN
F 1 "Nema 17" H 7200 4300 50  0000 C CNN
F 2 "Connector_JST:JST_PH_B4B-PH-K_1x04_P2.00mm_Vertical" H 7400 4300 50  0001 C CNN
F 3 "~" H 7400 4300 50  0001 C CNN
	1    7400 4300
	-1   0    0    -1  
$EndComp
$Comp
L power:GND #PWR0101
U 1 1 5F1EA940
P 4100 4900
F 0 "#PWR0101" H 4100 4650 50  0001 C CNN
F 1 "GND" H 4105 4727 50  0000 C CNN
F 2 "" H 4100 4900 50  0001 C CNN
F 3 "" H 4100 4900 50  0001 C CNN
	1    4100 4900
	1    0    0    -1  
$EndComp
$Comp
L power:GND #PWR0102
U 1 1 5F1EC790
P 7100 4000
F 0 "#PWR0102" H 7100 3750 50  0001 C CNN
F 1 "GND" H 6950 3800 50  0000 C CNN
F 2 "" H 7100 4000 50  0001 C CNN
F 3 "" H 7100 4000 50  0001 C CNN
	1    7100 4000
	-1   0    0    1   
$EndComp
Wire Wire Line
	7100 4100 7100 4000
Wire Wire Line
	6200 4100 7100 4100
$Comp
L power:GND #PWR0103
U 1 1 5F1EDDC0
P 6200 4700
F 0 "#PWR0103" H 6200 4450 50  0001 C CNN
F 1 "GND" H 6205 4527 50  0000 C CNN
F 2 "" H 6200 4700 50  0001 C CNN
F 3 "" H 6200 4700 50  0001 C CNN
	1    6200 4700
	1    0    0    -1  
$EndComp
$Comp
L power:+5V #PWR0104
U 1 1 5F1F1D71
P 4300 4900
F 0 "#PWR0104" H 4300 4750 50  0001 C CNN
F 1 "+5V" H 4315 5073 50  0000 C CNN
F 2 "" H 4300 4900 50  0001 C CNN
F 3 "" H 4300 4900 50  0001 C CNN
	1    4300 4900
	-1   0    0    1   
$EndComp
Wire Wire Line
	3900 4600 5700 4500
$Comp
L power:+12V #PWR0106
U 1 1 5F20075E
P 3900 4900
F 0 "#PWR0106" H 3900 4750 50  0001 C CNN
F 1 "+12V" H 3915 5073 50  0000 C CNN
F 2 "" H 3900 4900 50  0001 C CNN
F 3 "" H 3900 4900 50  0001 C CNN
	1    3900 4900
	-1   0    0    1   
$EndComp
$Comp
L power:+12V #PWR0107
U 1 1 5F2028AB
P 6800 3950
F 0 "#PWR0107" H 6800 3800 50  0001 C CNN
F 1 "+12V" H 6650 4100 50  0000 C CNN
F 2 "" H 6800 3950 50  0001 C CNN
F 3 "" H 6800 3950 50  0001 C CNN
	1    6800 3950
	1    0    0    -1  
$EndComp
Wire Wire Line
	6200 4000 6800 4000
Wire Wire Line
	6800 4000 6800 3950
Wire Wire Line
	3900 4500 5700 4600
Text Label 5400 4700 0    50   ~ 0
DIR
Text Label 5350 4600 0    50   ~ 0
STEP
Text Label 5300 4500 0    50   ~ 0
SLEEP
$Comp
L Device:Jumper_NO_Small JP1
U 1 1 5F20910B
P 5600 4100
F 0 "JP1" H 5600 4250 50  0000 C CNN
F 1 "Jumper_NO_Small" H 5350 4450 50  0000 C CNN
F 2 "Connector_PinHeader_2.00mm:PinHeader_1x02_P2.00mm_Vertical" H 5600 4100 50  0001 C CNN
F 3 "~" H 5600 4100 50  0001 C CNN
	1    5600 4100
	1    0    0    -1  
$EndComp
$Comp
L power:+5V #PWR0108
U 1 1 5F20A76C
P 5500 4100
F 0 "#PWR0108" H 5500 3950 50  0001 C CNN
F 1 "+5V" H 5350 4200 50  0000 C CNN
F 2 "" H 5500 4100 50  0001 C CNN
F 3 "" H 5500 4100 50  0001 C CNN
	1    5500 4100
	1    0    0    -1  
$EndComp
$Comp
L Device:Jumper_NO_Small JP2
U 1 1 5F20AEC4
P 5600 4200
F 0 "JP2" H 5450 4150 50  0000 C CNN
F 1 "Jumper_NO_Small" H 5100 4550 50  0000 C CNN
F 2 "Connector_PinHeader_2.00mm:PinHeader_1x02_P2.00mm_Vertical" H 5600 4200 50  0001 C CNN
F 3 "~" H 5600 4200 50  0001 C CNN
	1    5600 4200
	1    0    0    -1  
$EndComp
$Comp
L power:+5V #PWR0109
U 1 1 5F20B4EE
P 5500 4200
F 0 "#PWR0109" H 5500 4050 50  0001 C CNN
F 1 "+5V" H 5350 4250 50  0000 C CNN
F 2 "" H 5500 4200 50  0001 C CNN
F 3 "" H 5500 4200 50  0001 C CNN
	1    5500 4200
	1    0    0    -1  
$EndComp
$Comp
L power:+5V #PWR0110
U 1 1 5F20CEFB
P 5700 4700
F 0 "#PWR0110" H 5700 4550 50  0001 C CNN
F 1 "+5V" H 5850 4800 50  0000 C CNN
F 2 "" H 5700 4700 50  0001 C CNN
F 3 "" H 5700 4700 50  0001 C CNN
	1    5700 4700
	-1   0    0    1   
$EndComp
Connection ~ 6800 4000
Connection ~ 7100 4000
NoConn ~ 5700 4000
NoConn ~ 5700 4300
Text Label 5300 4400 0    50   ~ 0
RESET
$Comp
L power:+5V #PWR0111
U 1 1 5F213F37
P 5700 4400
F 0 "#PWR0111" H 5700 4250 50  0001 C CNN
F 1 "+5V" V 5715 4528 50  0000 L CNN
F 2 "" H 5700 4400 50  0001 C CNN
F 3 "" H 5700 4400 50  0001 C CNN
	1    5700 4400
	0    -1   -1   0   
$EndComp
$Comp
L power:PWR_FLAG #FLG0101
U 1 1 5F2151B8
P 1800 1000
F 0 "#FLG0101" H 1800 1075 50  0001 C CNN
F 1 "PWR_FLAG" H 1800 1173 50  0000 C CNN
F 2 "" H 1800 1000 50  0001 C CNN
F 3 "~" H 1800 1000 50  0001 C CNN
	1    1800 1000
	1    0    0    -1  
$EndComp
$Comp
L power:+5V #PWR0112
U 1 1 5F215A53
P 1800 1000
F 0 "#PWR0112" H 1800 850 50  0001 C CNN
F 1 "+5V" H 1815 1173 50  0000 C CNN
F 2 "" H 1800 1000 50  0001 C CNN
F 3 "" H 1800 1000 50  0001 C CNN
	1    1800 1000
	-1   0    0    1   
$EndComp
$Comp
L power:PWR_FLAG #FLG0102
U 1 1 5F2161D0
P 1400 1000
F 0 "#FLG0102" H 1400 1075 50  0001 C CNN
F 1 "PWR_FLAG" H 1400 1173 50  0000 C CNN
F 2 "" H 1400 1000 50  0001 C CNN
F 3 "~" H 1400 1000 50  0001 C CNN
	1    1400 1000
	1    0    0    -1  
$EndComp
$Comp
L power:GND #PWR0113
U 1 1 5F216FFA
P 1400 1000
F 0 "#PWR0113" H 1400 750 50  0001 C CNN
F 1 "GND" H 1405 827 50  0000 C CNN
F 2 "" H 1400 1000 50  0001 C CNN
F 3 "" H 1400 1000 50  0001 C CNN
	1    1400 1000
	1    0    0    -1  
$EndComp
$Comp
L power:PWR_FLAG #FLG0103
U 1 1 5F217A22
P 1000 1000
F 0 "#FLG0103" H 1000 1075 50  0001 C CNN
F 1 "PWR_FLAG" H 1000 1173 50  0000 C CNN
F 2 "" H 1000 1000 50  0001 C CNN
F 3 "~" H 1000 1000 50  0001 C CNN
	1    1000 1000
	1    0    0    -1  
$EndComp
$Comp
L power:+12V #PWR0114
U 1 1 5F217F3F
P 1000 1000
F 0 "#PWR0114" H 1000 850 50  0001 C CNN
F 1 "+12V" H 1015 1173 50  0000 C CNN
F 2 "" H 1000 1000 50  0001 C CNN
F 3 "" H 1000 1000 50  0001 C CNN
	1    1000 1000
	-1   0    0    1   
$EndComp
$Comp
L power:+5V #PWR0105
U 1 1 5F1F2E0D
P 6200 4600
F 0 "#PWR0105" H 6200 4450 50  0001 C CNN
F 1 "+5V" V 6215 4728 50  0000 L CNN
F 2 "" H 6200 4600 50  0001 C CNN
F 3 "" H 6200 4600 50  0001 C CNN
	1    6200 4600
	0    1    1    0   
$EndComp
$Comp
L Connector:Conn_01x08_Female J2
U 1 1 5F22BC1A
P 5900 4300
F 0 "J2" H 5800 4700 50  0000 L CNN
F 1 "Conn_01x08_Female" H 5250 3550 50  0000 L CNN
F 2 "Connector_PinSocket_2.54mm:PinSocket_1x08_P2.54mm_Vertical" H 5900 4300 50  0001 C CNN
F 3 "~" H 5900 4300 50  0001 C CNN
	1    5900 4300
	1    0    0    -1  
$EndComp
$Comp
L Connector:Conn_01x08_Female J3
U 1 1 5F22D715
P 6000 4400
F 0 "J3" H 5800 3900 50  0000 C CNN
F 1 "Conn_01x08_Female" H 5850 3600 50  0000 C CNN
F 2 "Connector_PinSocket_2.54mm:PinSocket_1x08_P2.54mm_Vertical" H 6000 4400 50  0001 C CNN
F 3 "~" H 6000 4400 50  0001 C CNN
	1    6000 4400
	-1   0    0    1   
$EndComp
$Comp
L Device:R R1
U 1 1 5F178E98
P 3900 3600
F 0 "R1" H 3750 3600 50  0000 L CNN
F 1 "220ohm" H 4000 3600 50  0000 L CNN
F 2 "Resistor_THT:R_Axial_DIN0207_L6.3mm_D2.5mm_P7.62mm_Horizontal" V 3830 3600 50  0001 C CNN
F 3 "~" H 3900 3600 50  0001 C CNN
	1    3900 3600
	1    0    0    -1  
$EndComp
Wire Wire Line
	3900 4300 3900 3750
$Comp
L Connector:Conn_01x07_Male J1
U 1 1 5F353480
P 3700 4600
F 0 "J1" V 3535 4578 50  0000 C CNN
F 1 "Input" H 3400 4800 50  0000 C CNN
F 2 "Connector_JST:JST_PH_B7B-PH-K_1x07_P2.00mm_Vertical" H 3700 4600 50  0001 C CNN
F 3 "~" H 3700 4600 50  0001 C CNN
	1    3700 4600
	1    0    0    1   
$EndComp
Wire Wire Line
	4100 4800 3900 4800
Wire Wire Line
	4100 4800 4100 4900
Wire Wire Line
	4300 4900 4300 4700
Wire Wire Line
	4300 4700 3900 4700
$Comp
L Connector:Conn_01x02_Male J5
U 1 1 5F370502
P 7350 3000
F 0 "J5" H 7322 2882 50  0000 R CNN
F 1 "Solenoid" H 7322 2973 50  0000 R CNN
F 2 "Connector_JST:JST_PH_B2B-PH-K_1x02_P2.00mm_Vertical" H 7350 3000 50  0001 C CNN
F 3 "~" H 7350 3000 50  0001 C CNN
	1    7350 3000
	-1   0    0    1   
$EndComp
Wire Wire Line
	7150 3000 6800 3000
$Comp
L Diode:1N4001 D1
U 1 1 5F165C22
P 6650 3000
F 0 "D1" H 6650 2784 50  0000 C CNN
F 1 "1N4001" H 6650 2875 50  0000 C CNN
F 2 "Diode_THT:D_DO-41_SOD81_P5.08mm_Vertical_KathodeUp" H 6650 2825 50  0001 C CNN
F 3 "http://www.vishay.com/docs/88503/1n4001.pdf" H 6650 3000 50  0001 C CNN
	1    6650 3000
	-1   0    0    -1  
$EndComp
Wire Wire Line
	6500 3000 6500 2900
Wire Wire Line
	4600 2900 6500 2900
Connection ~ 6500 2900
Wire Wire Line
	6500 2900 7150 2900
NoConn ~ 3900 4400
$Comp
L power:GND #PWR0116
U 1 1 5F382C94
P 4600 3650
F 0 "#PWR0116" H 4600 3400 50  0001 C CNN
F 1 "GND" H 4605 3477 50  0000 C CNN
F 2 "" H 4600 3650 50  0001 C CNN
F 3 "" H 4600 3650 50  0001 C CNN
	1    4600 3650
	1    0    0    -1  
$EndComp
Wire Wire Line
	4600 3250 4600 2900
Wire Wire Line
	4300 3450 3900 3450
$Comp
L Transistor_BJT:TIP120 Q1
U 1 1 5F179DF7
P 4500 3450
F 0 "Q1" H 4707 3496 50  0000 L CNN
F 1 "TIP120" H 4707 3405 50  0000 L CNN
F 2 "Package_TO_SOT_THT:TO-220-3_Horizontal_TabUp" H 4700 3375 50  0001 L CIN
F 3 "http://www.fairchildsemi.com/ds/TI/TIP120.pdf" H 4500 3450 50  0001 L CNN
	1    4500 3450
	1    0    0    -1  
$EndComp
$Comp
L power:+5V #PWR?
U 1 1 5F2BFF66
P 7150 3000
F 0 "#PWR?" H 7150 2850 50  0001 C CNN
F 1 "+5V" H 7165 3173 50  0000 C CNN
F 2 "" H 7150 3000 50  0001 C CNN
F 3 "" H 7150 3000 50  0001 C CNN
	1    7150 3000
	-1   0    0    1   
$EndComp
Connection ~ 7150 3000
$EndSCHEMATC
