M48
; DRILL file {KiCad 5.1.6} date Sat Aug  8 11:13:37 2020
; FORMAT={-:-/ absolute / metric / decimal}
; #@! TF.CreationDate,2020-08-08T11:13:37+03:00
; #@! TF.GenerationSoftware,Kicad,Pcbnew,5.1.6
FMAT,2
METRIC
T1C0.750
T2C0.800
T3C1.000
T4C3.200
T5C7.000
%
G90
G05
T1
X127.762Y-117.38
X127.762Y-119.38
X94.996Y-92.14
X94.996Y-94.14
X94.996Y-96.14
X94.996Y-98.14
X94.996Y-100.14
X94.996Y-102.14
X94.996Y-104.14
X122.174Y-98.236
X122.174Y-100.236
X122.174Y-102.236
X122.174Y-104.236
X122.174Y-106.236
X122.174Y-108.236
X122.174Y-110.236
X94.996Y-109.793
X94.996Y-111.793
X94.996Y-113.793
X94.996Y-115.793
X94.996Y-117.793
X94.996Y-119.793
X94.996Y-121.793
T2
X120.904Y-125.0
X120.904Y-127.0
X100.584Y-89.408
X100.584Y-91.948
X100.584Y-94.488
X100.584Y-97.028
X100.584Y-99.568
X100.584Y-102.108
X100.584Y-104.648
X100.584Y-107.188
X100.584Y-109.728
X100.584Y-112.268
X100.584Y-114.808
X100.584Y-117.348
X100.584Y-119.888
X100.584Y-122.428
X100.584Y-124.968
X115.824Y-89.408
X115.824Y-91.948
X115.824Y-94.488
X115.824Y-97.028
X115.824Y-99.568
X115.824Y-102.108
X115.824Y-104.648
X115.824Y-107.188
X115.824Y-109.728
X115.824Y-112.268
X115.824Y-114.808
X115.824Y-117.348
X115.824Y-119.888
X115.824Y-122.428
X115.824Y-124.968
T3
X82.296Y-99.441
X84.836Y-99.441
X87.376Y-99.441
X89.916Y-99.441
T4
X89.401Y-87.369
X128.023Y-87.369
X89.401Y-125.991
X128.023Y-125.991
T5
X108.458Y-132.842
T0
M30
