(export (version D)
  (design
    (source /home/davidf/projects/Anima/parts/Plinth/parts/Circuit/moments/kicad/controller.sch)
    (date "Tue 04 Aug 2020 02:17:21 PM IDT")
    (tool "Eeschema 5.1.6")
    (sheet (number 1) (name /) (tstamps /)
      (title_block
        (title)
        (company)
        (rev)
        (date)
        (source controller.sch)
        (comment (number 1) (value ""))
        (comment (number 2) (value ""))
        (comment (number 3) (value ""))
        (comment (number 4) (value "")))))
  (components
    (comp (ref J4)
      (value Unit3)
      (footprint Connector_JST:JST_PH_B7B-PH-K_1x07_P2.00mm_Vertical)
      (datasheet ~)
      (libsource (lib Connector) (part Conn_01x07_Male) (description "Generic connector, single row, 01x07, script generated (kicad-library-utils/schlib/autogen/connector/)"))
      (sheetpath (names /) (tstamps /))
      (tstamp 5F1A0888))
    (comp (ref J3)
      (value Unit2)
      (footprint Connector_JST:JST_PH_B7B-PH-K_1x07_P2.00mm_Vertical)
      (datasheet ~)
      (libsource (lib Connector) (part Conn_01x07_Male) (description "Generic connector, single row, 01x07, script generated (kicad-library-utils/schlib/autogen/connector/)"))
      (sheetpath (names /) (tstamps /))
      (tstamp 5F1A1CA7))
    (comp (ref J2)
      (value Unit1)
      (footprint Connector_JST:JST_PH_B7B-PH-K_1x07_P2.00mm_Vertical)
      (datasheet ~)
      (libsource (lib Connector) (part Conn_01x07_Male) (description "Generic connector, single row, 01x07, script generated (kicad-library-utils/schlib/autogen/connector/)"))
      (sheetpath (names /) (tstamps /))
      (tstamp 5F1A35DA))
    (comp (ref J1)
      (value "- +12v")
      (footprint Connector_JST:JST_PH_B2B-PH-K_1x02_P2.00mm_Vertical)
      (datasheet ~)
      (libsource (lib Connector) (part Conn_01x02_Male) (description "Generic connector, single row, 01x02, script generated (kicad-library-utils/schlib/autogen/connector/)"))
      (sheetpath (names /) (tstamps /))
      (tstamp 5F1FCF5B))
    (comp (ref J5)
      (value "voltage regulator")
      (footprint Connector_PinSocket_2.54mm:PinSocket_1x04_P2.54mm_Vertical)
      (datasheet ~)
      (libsource (lib Connector) (part Conn_01x04_Female) (description "Generic connector, single row, 01x04, script generated (kicad-library-utils/schlib/autogen/connector/)"))
      (sheetpath (names /) (tstamps /))
      (tstamp 5F299ECF))
    (comp (ref A1)
      (value Arduino_Nano_v3.x)
      (footprint Module:Arduino_Nano)
      (datasheet http://www.mouser.com/pdfdocs/Gravitech_Arduino_Nano3_0.pdf)
      (libsource (lib controller-rescue) (part Arduino_Nano_v3.x-MCU_Module) (description ""))
      (sheetpath (names /) (tstamps /))
      (tstamp 5F19CD6B))
    (comp (ref C1)
      (value 33uF)
      (datasheet ~)
      (libsource (lib Device) (part CP1) (description "Polarized capacitor, US symbol"))
      (sheetpath (names /) (tstamps /))
      (tstamp 5F2BDF69)))
  (libparts
    (libpart (lib Connector) (part Conn_01x02_Male)
      (description "Generic connector, single row, 01x02, script generated (kicad-library-utils/schlib/autogen/connector/)")
      (docs ~)
      (footprints
        (fp Connector*:*_1x??_*))
      (fields
        (field (name Reference) J)
        (field (name Value) Conn_01x02_Male))
      (pins
        (pin (num 1) (name Pin_1) (type passive))
        (pin (num 2) (name Pin_2) (type passive))))
    (libpart (lib Connector) (part Conn_01x04_Female)
      (description "Generic connector, single row, 01x04, script generated (kicad-library-utils/schlib/autogen/connector/)")
      (docs ~)
      (footprints
        (fp Connector*:*_1x??_*))
      (fields
        (field (name Reference) J)
        (field (name Value) Conn_01x04_Female))
      (pins
        (pin (num 1) (name Pin_1) (type passive))
        (pin (num 2) (name Pin_2) (type passive))
        (pin (num 3) (name Pin_3) (type passive))
        (pin (num 4) (name Pin_4) (type passive))))
    (libpart (lib Connector) (part Conn_01x07_Male)
      (description "Generic connector, single row, 01x07, script generated (kicad-library-utils/schlib/autogen/connector/)")
      (docs ~)
      (footprints
        (fp Connector*:*_1x??_*))
      (fields
        (field (name Reference) J)
        (field (name Value) Conn_01x07_Male))
      (pins
        (pin (num 1) (name Pin_1) (type passive))
        (pin (num 2) (name Pin_2) (type passive))
        (pin (num 3) (name Pin_3) (type passive))
        (pin (num 4) (name Pin_4) (type passive))
        (pin (num 5) (name Pin_5) (type passive))
        (pin (num 6) (name Pin_6) (type passive))
        (pin (num 7) (name Pin_7) (type passive))))
    (libpart (lib Device) (part CP1)
      (description "Polarized capacitor, US symbol")
      (docs ~)
      (footprints
        (fp CP_*))
      (fields
        (field (name Reference) C)
        (field (name Value) CP1))
      (pins
        (pin (num 1) (name ~) (type passive))
        (pin (num 2) (name ~) (type passive))))
    (libpart (lib controller-rescue) (part Arduino_Nano_v3.x-MCU_Module)
      (footprints
        (fp Arduino*Nano*))
      (fields
        (field (name Reference) A)
        (field (name Value) Arduino_Nano_v3.x-MCU_Module)
        (field (name Footprint) Module:Arduino_Nano))
      (pins
        (pin (num 1) (name D1/TX) (type BiDi))
        (pin (num 2) (name D0/RX) (type BiDi))
        (pin (num 3) (name RESET) (type input))
        (pin (num 4) (name GND) (type power_in))
        (pin (num 5) (name D2) (type BiDi))
        (pin (num 6) (name D3) (type BiDi))
        (pin (num 7) (name D4) (type BiDi))
        (pin (num 8) (name D5) (type BiDi))
        (pin (num 9) (name D6) (type BiDi))
        (pin (num 10) (name D7) (type BiDi))
        (pin (num 11) (name D8) (type BiDi))
        (pin (num 12) (name D9) (type BiDi))
        (pin (num 13) (name D10) (type BiDi))
        (pin (num 14) (name D11) (type BiDi))
        (pin (num 15) (name D12) (type BiDi))
        (pin (num 16) (name D13) (type BiDi))
        (pin (num 17) (name 3V3) (type power_out))
        (pin (num 18) (name AREF) (type input))
        (pin (num 19) (name A0) (type BiDi))
        (pin (num 20) (name A1) (type BiDi))
        (pin (num 21) (name A2) (type BiDi))
        (pin (num 22) (name A3) (type BiDi))
        (pin (num 23) (name A4) (type BiDi))
        (pin (num 24) (name A5) (type BiDi))
        (pin (num 25) (name A6) (type BiDi))
        (pin (num 26) (name A7) (type BiDi))
        (pin (num 27) (name +5V) (type power_out))
        (pin (num 28) (name RESET) (type input))
        (pin (num 29) (name GND) (type power_in))
        (pin (num 30) (name VIN) (type power_in)))))
  (libraries
    (library (logical Connector)
      (uri /usr/share/kicad/library/Connector.lib))
    (library (logical Device)
      (uri /usr/share/kicad/library/Device.lib))
    (library (logical controller-rescue)
      (uri /home/davidf/projects/Anima/parts/Plinth/parts/Circuit/moments/kicad/controller-rescue.lib)))
  (nets
    (net (code 1) (name "Net-(A1-Pad7)")
      (node (ref A1) (pin 7))
      (node (ref J4) (pin 6)))
    (net (code 2) (name +12V)
      (node (ref J3) (pin 1))
      (node (ref C1) (pin 1))
      (node (ref J5) (pin 2))
      (node (ref J1) (pin 1))
      (node (ref J2) (pin 1))
      (node (ref J4) (pin 1)))
    (net (code 3) (name "Net-(J5-Pad1)")
      (node (ref J5) (pin 1)))
    (net (code 4) (name "Net-(A1-Pad10)")
      (node (ref J3) (pin 5))
      (node (ref A1) (pin 10)))
    (net (code 5) (name "Net-(A1-Pad11)")
      (node (ref A1) (pin 11))
      (node (ref J2) (pin 4)))
    (net (code 6) (name "Net-(A1-Pad12)")
      (node (ref A1) (pin 12))
      (node (ref J2) (pin 5)))
    (net (code 7) (name "Net-(A1-Pad16)")
      (node (ref A1) (pin 16)))
    (net (code 8) (name "Net-(A1-Pad1)")
      (node (ref A1) (pin 1)))
    (net (code 9) (name "Net-(A1-Pad5)")
      (node (ref A1) (pin 5)))
    (net (code 10) (name "Net-(A1-Pad6)")
      (node (ref A1) (pin 6)))
    (net (code 11) (name "Net-(A1-Pad15)")
      (node (ref A1) (pin 15)))
    (net (code 12) (name "Net-(A1-Pad14)")
      (node (ref A1) (pin 14)))
    (net (code 13) (name "Net-(A1-Pad13)")
      (node (ref A1) (pin 13)))
    (net (code 14) (name "Net-(A1-Pad23)")
      (node (ref A1) (pin 23)))
    (net (code 15) (name "Net-(A1-Pad24)")
      (node (ref A1) (pin 24)))
    (net (code 16) (name "Net-(A1-Pad2)")
      (node (ref A1) (pin 2)))
    (net (code 17) (name "Net-(A1-Pad17)")
      (node (ref A1) (pin 17)))
    (net (code 18) (name "Net-(A1-Pad3)")
      (node (ref A1) (pin 3)))
    (net (code 19) (name "Net-(A1-Pad18)")
      (node (ref A1) (pin 18)))
    (net (code 20) (name "Net-(A1-Pad28)")
      (node (ref A1) (pin 28)))
    (net (code 21) (name "Net-(A1-Pad26)")
      (node (ref J4) (pin 4))
      (node (ref A1) (pin 26)))
    (net (code 22) (name "Net-(A1-Pad19)")
      (node (ref J2) (pin 7))
      (node (ref A1) (pin 19)))
    (net (code 23) (name "Net-(A1-Pad20)")
      (node (ref J2) (pin 6))
      (node (ref A1) (pin 20)))
    (net (code 24) (name "Net-(A1-Pad22)")
      (node (ref J3) (pin 6))
      (node (ref A1) (pin 22)))
    (net (code 25) (name "Net-(A1-Pad25)")
      (node (ref A1) (pin 25))
      (node (ref J4) (pin 5)))
    (net (code 26) (name "Net-(A1-Pad27)")
      (node (ref A1) (pin 27)))
    (net (code 27) (name "Net-(A1-Pad9)")
      (node (ref J3) (pin 4))
      (node (ref A1) (pin 9)))
    (net (code 28) (name +5V)
      (node (ref J5) (pin 4))
      (node (ref A1) (pin 30))
      (node (ref J2) (pin 3))
      (node (ref J4) (pin 3))
      (node (ref J3) (pin 3)))
    (net (code 29) (name GND)
      (node (ref J1) (pin 2))
      (node (ref A1) (pin 4))
      (node (ref A1) (pin 29))
      (node (ref C1) (pin 2))
      (node (ref J3) (pin 2))
      (node (ref J2) (pin 2))
      (node (ref J4) (pin 2))
      (node (ref J5) (pin 3)))
    (net (code 30) (name "Net-(A1-Pad8)")
      (node (ref J4) (pin 7))
      (node (ref A1) (pin 8)))
    (net (code 31) (name "Net-(A1-Pad21)")
      (node (ref J3) (pin 7))
      (node (ref A1) (pin 21)))))