EESchema Schematic File Version 4
EELAYER 30 0
EELAYER END
$Descr A4 11693 8268
encoding utf-8
Sheet 1 1
Title ""
Date ""
Rev ""
Comp ""
Comment1 ""
Comment2 ""
Comment3 ""
Comment4 ""
$EndDescr
$Comp
L Connector:Conn_01x07_Male J3
U 1 1 5F1A1CA7
P 7650 5050
F 0 "J3" H 7622 4982 50  0000 R CNN
F 1 "Unit2" H 7750 4600 50  0000 R CNN
F 2 "Connector_JST:JST_PH_B7B-PH-K_1x07_P2.00mm_Vertical" H 7650 5050 50  0001 C CNN
F 3 "~" H 7650 5050 50  0001 C CNN
	1    7650 5050
	-1   0    0    1   
$EndComp
$Comp
L power:GND #PWR0102
U 1 1 5F1A54DD
P 3750 3000
F 0 "#PWR0102" H 3750 2750 50  0001 C CNN
F 1 "GND" H 3755 2827 50  0000 C CNN
F 2 "" H 3750 3000 50  0001 C CNN
F 3 "" H 3750 3000 50  0001 C CNN
	1    3750 3000
	1    0    0    -1  
$EndComp
$Comp
L Connector:Conn_01x07_Male J2
U 1 1 5F1A35DA
P 3300 4600
F 0 "J2" V 3135 4578 50  0000 C CNN
F 1 "Unit1" H 3150 4200 50  0000 C CNN
F 2 "Connector_JST:JST_PH_B7B-PH-K_1x07_P2.00mm_Vertical" H 3300 4600 50  0001 C CNN
F 3 "~" H 3300 4600 50  0001 C CNN
	1    3300 4600
	1    0    0    -1  
$EndComp
Wire Wire Line
	4250 3750 4250 4700
Wire Wire Line
	6850 3950 7850 3950
Wire Wire Line
	7850 3950 7850 5600
Wire Wire Line
	5850 3950 4450 3950
Wire Wire Line
	4450 3950 4450 5350
Wire Wire Line
	4450 5350 7100 5350
Wire Wire Line
	7100 5350 7100 4950
Wire Wire Line
	7100 4950 7450 4950
Wire Wire Line
	5850 3850 4350 3850
Wire Wire Line
	4350 3850 4350 5450
Wire Wire Line
	4350 5450 7200 5450
Wire Wire Line
	7200 5450 7200 5050
Wire Wire Line
	7200 5050 7450 5050
Wire Wire Line
	6850 4150 7350 4150
Wire Wire Line
	7350 4150 7350 4850
Wire Wire Line
	7350 4850 7450 4850
NoConn ~ 6950 4250
NoConn ~ 6950 4350
NoConn ~ 6950 3650
NoConn ~ 6950 3350
NoConn ~ 5850 3300
NoConn ~ 5850 3400
NoConn ~ 5850 3500
NoConn ~ 5850 3600
NoConn ~ 5850 4600
NoConn ~ 5850 4500
NoConn ~ 5850 4400
NoConn ~ 5850 4300
Wire Wire Line
	6950 4250 6850 4250
Wire Wire Line
	6950 4350 6850 4350
Wire Wire Line
	5850 4300 5850 4250
Wire Wire Line
	5850 4400 5850 4350
Wire Wire Line
	5850 4500 5850 4450
Wire Wire Line
	5850 4600 5850 4550
Wire Wire Line
	5850 3300 5850 3250
Wire Wire Line
	5850 3400 5850 3350
Wire Wire Line
	5850 3500 5850 3450
Wire Wire Line
	5850 3600 5850 3550
NoConn ~ 6400 2850
Wire Wire Line
	6400 2850 6450 2850
Wire Wire Line
	6950 3350 6850 3350
Wire Wire Line
	6950 3650 6850 3650
NoConn ~ 6950 3250
Wire Wire Line
	6950 3250 6850 3250
Wire Wire Line
	4150 5700 4150 4900
$Comp
L Connector:Conn_01x02_Male J1
U 1 1 5F1FCF5B
P 3550 2900
F 0 "J1" H 3550 2700 50  0000 C CNN
F 1 "- +12v" V 3450 2900 50  0000 C CNN
F 2 "Connector_JST:JST_PH_B2B-PH-K_1x02_P2.00mm_Vertical" H 3550 2900 50  0001 C CNN
F 3 "~" H 3550 2900 50  0001 C CNN
	1    3550 2900
	1    0    0    -1  
$EndComp
$Comp
L Connector:Conn_01x04_Female J5
U 1 1 5F299ECF
P 4550 2750
F 0 "J5" H 4578 2726 50  0000 L CNN
F 1 "voltage regulator" V 4800 2300 50  0000 L CNN
F 2 "Connector_PinSocket_2.54mm:PinSocket_1x04_P2.54mm_Vertical" H 4550 2750 50  0001 C CNN
F 3 "~" H 4550 2750 50  0001 C CNN
	1    4550 2750
	-1   0    0    -1  
$EndComp
$Comp
L controller-rescue:Arduino_Nano_v3.x-MCU_Module A1
U 1 1 5F19CD6B
P 6350 3850
F 0 "A1" H 6150 2850 50  0000 C CNN
F 1 "Arduino_Nano_v3.x" V 6350 3850 50  0000 C CNN
F 2 "Module:Arduino_Nano" H 6500 2900 50  0001 L CNN
F 3 "http://www.mouser.com/pdfdocs/Gravitech_Arduino_Nano3_0.pdf" H 6350 2850 50  0001 C CNN
	1    6350 3850
	1    0    0    -1  
$EndComp
Wire Wire Line
	4750 2750 5150 2750
Wire Wire Line
	4750 2850 4950 2850
NoConn ~ 4750 2650
$Comp
L power:+5V #PWR0103
U 1 1 5F2B9B12
P 4750 2950
F 0 "#PWR0103" H 4750 2800 50  0001 C CNN
F 1 "+5V" H 4765 3123 50  0000 C CNN
F 2 "" H 4750 2950 50  0001 C CNN
F 3 "" H 4750 2950 50  0001 C CNN
	1    4750 2950
	-1   0    0    1   
$EndComp
$Comp
L Device:CP1 C1
U 1 1 5F2BDF69
P 5150 2900
F 0 "C1" H 5265 2946 50  0000 L CNN
F 1 "33uF" H 5265 2855 50  0000 L CNN
F 2 "Capacitor_THT:CP_Radial_D5.0mm_P2.00mm" H 5150 2900 50  0001 C CNN
F 3 "~" H 5150 2900 50  0001 C CNN
	1    5150 2900
	1    0    0    -1  
$EndComp
Connection ~ 5150 2750
Wire Wire Line
	5150 3050 4950 3050
Wire Wire Line
	4950 2850 4950 3050
$Comp
L power:+12V #PWR0104
U 1 1 5F2D51EF
P 7450 5350
F 0 "#PWR0104" H 7450 5200 50  0001 C CNN
F 1 "+12V" H 7465 5523 50  0000 C CNN
F 2 "" H 7450 5350 50  0001 C CNN
F 3 "" H 7450 5350 50  0001 C CNN
	1    7450 5350
	-1   0    0    1   
$EndComp
$Comp
L power:+12V #PWR0105
U 1 1 5F2D55B5
P 3500 4300
F 0 "#PWR0105" H 3500 4150 50  0001 C CNN
F 1 "+12V" V 3450 4500 50  0000 C CNN
F 2 "" H 3500 4300 50  0001 C CNN
F 3 "" H 3500 4300 50  0001 C CNN
	1    3500 4300
	0    1    1    0   
$EndComp
$Comp
L power:+5V #PWR0106
U 1 1 5F2D5955
P 3500 4500
F 0 "#PWR0106" H 3500 4350 50  0001 C CNN
F 1 "+5V" V 3515 4673 50  0000 C CNN
F 2 "" H 3500 4500 50  0001 C CNN
F 3 "" H 3500 4500 50  0001 C CNN
	1    3500 4500
	0    1    1    0   
$EndComp
$Comp
L power:+5V #PWR0107
U 1 1 5F2D5DC7
P 7450 5150
F 0 "#PWR0107" H 7450 5000 50  0001 C CNN
F 1 "+5V" H 7450 5300 50  0000 C CNN
F 2 "" H 7450 5150 50  0001 C CNN
F 3 "" H 7450 5150 50  0001 C CNN
	1    7450 5150
	0    -1   -1   0   
$EndComp
$Comp
L power:+12V #PWR0108
U 1 1 5F2D6269
P 5150 2750
F 0 "#PWR0108" H 5150 2600 50  0001 C CNN
F 1 "+12V" H 5165 2923 50  0000 C CNN
F 2 "" H 5150 2750 50  0001 C CNN
F 3 "" H 5150 2750 50  0001 C CNN
	1    5150 2750
	1    0    0    -1  
$EndComp
$Comp
L power:+5V #PWR0109
U 1 1 5F2D642E
P 6250 2850
F 0 "#PWR0109" H 6250 2700 50  0001 C CNN
F 1 "+5V" H 6265 3023 50  0000 C CNN
F 2 "" H 6250 2850 50  0001 C CNN
F 3 "" H 6250 2850 50  0001 C CNN
	1    6250 2850
	1    0    0    -1  
$EndComp
$Comp
L power:GND #PWR0110
U 1 1 5F2D6877
P 5150 3050
F 0 "#PWR0110" H 5150 2800 50  0001 C CNN
F 1 "GND" H 5155 2877 50  0000 C CNN
F 2 "" H 5150 3050 50  0001 C CNN
F 3 "" H 5150 3050 50  0001 C CNN
	1    5150 3050
	1    0    0    -1  
$EndComp
Connection ~ 5150 3050
$Comp
L power:GND #PWR0111
U 1 1 5F2D73BB
P 6350 4850
F 0 "#PWR0111" H 6350 4600 50  0001 C CNN
F 1 "GND" H 6200 4650 50  0000 C CNN
F 2 "" H 6350 4850 50  0001 C CNN
F 3 "" H 6350 4850 50  0001 C CNN
	1    6350 4850
	1    0    0    -1  
$EndComp
$Comp
L power:GND #PWR0112
U 1 1 5F2D7661
P 6450 4850
F 0 "#PWR0112" H 6450 4600 50  0001 C CNN
F 1 "GND" H 6550 4650 50  0000 C CNN
F 2 "" H 6450 4850 50  0001 C CNN
F 3 "" H 6450 4850 50  0001 C CNN
	1    6450 4850
	1    0    0    -1  
$EndComp
$Comp
L power:GND #PWR0113
U 1 1 5F2D7877
P 7450 5250
F 0 "#PWR0113" H 7450 5000 50  0001 C CNN
F 1 "GND" V 7550 5100 50  0000 C CNN
F 2 "" H 7450 5250 50  0001 C CNN
F 3 "" H 7450 5250 50  0001 C CNN
	1    7450 5250
	0    1    1    0   
$EndComp
$Comp
L power:GND #PWR0114
U 1 1 5F2D7B7E
P 3500 4400
F 0 "#PWR0114" H 3500 4150 50  0001 C CNN
F 1 "GND" V 3500 4200 50  0000 C CNN
F 2 "" H 3500 4400 50  0001 C CNN
F 3 "" H 3500 4400 50  0001 C CNN
	1    3500 4400
	0    -1   -1   0   
$EndComp
$Comp
L power:+12V #PWR0101
U 1 1 5F1A44A6
P 3750 2900
F 0 "#PWR0101" H 3750 2750 50  0001 C CNN
F 1 "+12V" H 3765 3073 50  0000 C CNN
F 2 "" H 3750 2900 50  0001 C CNN
F 3 "" H 3750 2900 50  0001 C CNN
	1    3750 2900
	1    0    0    -1  
$EndComp
Wire Wire Line
	4250 3750 5850 3750
Wire Wire Line
	4150 5700 7950 5700
Wire Wire Line
	6850 4050 7450 4050
Wire Wire Line
	7950 3850 7950 5700
Wire Wire Line
	6850 3850 7950 3850
Wire Wire Line
	7450 4050 7450 4750
Wire Wire Line
	6850 5150 6850 4550
Wire Wire Line
	6950 4450 6850 4450
Wire Wire Line
	5600 4050 5850 4050
Wire Wire Line
	5700 4150 5850 4150
Wire Wire Line
	6850 5150 5700 5150
$Comp
L power:+5V #PWR0115
U 1 1 5F2D5F9E
P 5000 4500
F 0 "#PWR0115" H 5000 4350 50  0001 C CNN
F 1 "+5V" V 5000 4700 50  0000 C CNN
F 2 "" H 5000 4500 50  0001 C CNN
F 3 "" H 5000 4500 50  0001 C CNN
	1    5000 4500
	0    1    1    0   
$EndComp
$Comp
L power:GND #PWR0116
U 1 1 5F2D79D2
P 5000 4400
F 0 "#PWR0116" H 5000 4150 50  0001 C CNN
F 1 "GND" V 5100 4250 50  0000 C CNN
F 2 "" H 5000 4400 50  0001 C CNN
F 3 "" H 5000 4400 50  0001 C CNN
	1    5000 4400
	0    -1   -1   0   
$EndComp
$Comp
L power:+12V #PWR0117
U 1 1 5F2D4DD3
P 5000 4300
F 0 "#PWR0117" H 5000 4150 50  0001 C CNN
F 1 "+12V" H 5015 4473 50  0000 C CNN
F 2 "" H 5000 4300 50  0001 C CNN
F 3 "" H 5000 4300 50  0001 C CNN
	1    5000 4300
	1    0    0    -1  
$EndComp
$Comp
L Connector:Conn_01x07_Male J4
U 1 1 5F1A0888
P 4800 4600
F 0 "J4" H 4772 4532 50  0000 R CNN
F 1 "Unit3" H 4900 4150 50  0000 R CNN
F 2 "Connector_JST:JST_PH_B7B-PH-K_1x07_P2.00mm_Vertical" H 4800 4600 50  0001 C CNN
F 3 "~" H 4800 4600 50  0001 C CNN
	1    4800 4600
	1    0    0    -1  
$EndComp
Wire Wire Line
	6950 4450 6950 5250
Wire Wire Line
	6950 5250 5600 5250
Wire Wire Line
	5600 5250 5600 4900
Wire Wire Line
	5600 4900 5000 4900
Wire Wire Line
	5700 5150 5700 4800
Wire Wire Line
	5700 4800 5000 4800
Wire Wire Line
	5600 4050 5600 4600
Wire Wire Line
	5600 4600 5000 4600
Wire Wire Line
	5700 4150 5700 4700
Wire Wire Line
	5700 4700 5000 4700
Wire Wire Line
	4250 4700 3500 4700
Wire Wire Line
	4250 5600 7850 5600
Wire Wire Line
	4250 5600 4250 4800
Wire Wire Line
	4250 4800 3500 4800
Wire Wire Line
	4150 4900 3500 4900
NoConn ~ 6550 2850
$Comp
L power:PWR_FLAG #FLG0101
U 1 1 5F3B8290
P 2150 2800
F 0 "#FLG0101" H 2150 2875 50  0001 C CNN
F 1 "PWR_FLAG" H 2150 2973 50  0000 C CNN
F 2 "" H 2150 2800 50  0001 C CNN
F 3 "~" H 2150 2800 50  0001 C CNN
	1    2150 2800
	1    0    0    -1  
$EndComp
$Comp
L power:PWR_FLAG #FLG0102
U 1 1 5F3B83D5
P 1750 2800
F 0 "#FLG0102" H 1750 2875 50  0001 C CNN
F 1 "PWR_FLAG" H 1750 2973 50  0000 C CNN
F 2 "" H 1750 2800 50  0001 C CNN
F 3 "~" H 1750 2800 50  0001 C CNN
	1    1750 2800
	1    0    0    -1  
$EndComp
$Comp
L power:PWR_FLAG #FLG0103
U 1 1 5F3B866D
P 2600 2800
F 0 "#FLG0103" H 2600 2875 50  0001 C CNN
F 1 "PWR_FLAG" H 2600 2973 50  0000 C CNN
F 2 "" H 2600 2800 50  0001 C CNN
F 3 "~" H 2600 2800 50  0001 C CNN
	1    2600 2800
	1    0    0    -1  
$EndComp
$Comp
L power:+12V #PWR0118
U 1 1 5F3B87CB
P 2600 2800
F 0 "#PWR0118" H 2600 2650 50  0001 C CNN
F 1 "+12V" H 2615 2973 50  0000 C CNN
F 2 "" H 2600 2800 50  0001 C CNN
F 3 "" H 2600 2800 50  0001 C CNN
	1    2600 2800
	-1   0    0    1   
$EndComp
$Comp
L power:+5V #PWR0119
U 1 1 5F3B8A3C
P 2150 2800
F 0 "#PWR0119" H 2150 2650 50  0001 C CNN
F 1 "+5V" H 2165 2973 50  0000 C CNN
F 2 "" H 2150 2800 50  0001 C CNN
F 3 "" H 2150 2800 50  0001 C CNN
	1    2150 2800
	-1   0    0    1   
$EndComp
$Comp
L power:GND #PWR0120
U 1 1 5F3B8D39
P 1750 2800
F 0 "#PWR0120" H 1750 2550 50  0001 C CNN
F 1 "GND" H 1755 2627 50  0000 C CNN
F 2 "" H 1750 2800 50  0001 C CNN
F 3 "" H 1750 2800 50  0001 C CNN
	1    1750 2800
	1    0    0    -1  
$EndComp
Wire Wire Line
	4150 4600 3500 4600
Wire Wire Line
	4150 3650 5850 3650
Wire Wire Line
	4150 3650 4150 4600
$EndSCHEMATC
